mediciones/valido_4.csv

Memory Length,4000,
Trigger Level,8.800E-01,
Source,CH1,
Vertical Units,V,
Vertical Scale,2.000E+00,
Vertical Position,-8.000E-02,
Horizontal Units,s,
Horizontal Scale,2.500E-03,
Horizontal Position,1.010E-02,
Horizontal Mode,Main,
Sampling Period,1.000E-05,
Firmware, V1.14,
Waveform Data,
4
4
5
5
5
5
5
5
5
5
5
5
5
5
5
4
4
5
5
5
5
5
4
4
5
5
5
5
5
4
5
6
4
5
5
5
5
5
5
5
5
5
4
5
5
5
4
5
5
5
5
5
4
4
5
4
4
5
5
5
4
5
4
4
5
5
5
5
5
4
5
5
5
5
5
5
5
5
5
5
4
5
4
4
5
5
5
4
5
5
4
4
4
4
5
5
5
4
5
5
5
5
5
4
5
5
5
5
5
5
5
5
5
4
5
5
5
4
5
5
4
5
4
5
5
5
5
5
5
5
5
5
5
5
4
5
5
5
5
5
5
4
5
5
5
5
4
4
5
5
5
4
5
4
5
4
5
5
5
5
5
5
5
5
4
5
5
5
5
5
5
4
5
5
4
5
5
5
5
5
5
4
5
5
5
5
5
5
5
5
5
5
4
5
5
5
5
5
5
5
5
5
5
5
5
4
5
5
4
4
5
5
5
5
5
4
5
5
5
5
5
5
5
5
5
5
5
5
5
5
4
5
4
4
4
5
5
5
5
4
5
5
5
5
5
5
5
5
5
4
5
5
5
5
5
5
5
5
5
5
4
5
5
5
5
5
4
5
5
5
4
5
5
5
5
5
5
4
5
5
5
4
5
5
5
5
5
4
5
5
4
4
5
5
5
5
5
5
5
5
4
4
5
5
5
5
5
5
4
5
5
5
5
5
5
5
5
5
5
5
5
4
5
4
5
4
4
5
5
5
5
5
5
5
5
4
5
5
5
4
4
5
5
5
5
5
5
5
4
5
5
5
5
5
5
5
5
5
5
4
5
5
4
5
5
5
5
5
5
5
5
5
5
4
5
5
4
5
5
4
4
4
4
4
4
5
5
5
4
4
4
4
4
4
4
4
4
4
5
4
4
5
4
4
5
5
5
5
5
5
5
4
5
5
5
5
5
4
5
5
4
4
4
4
4
5
5
4
5
4
4
4
4
5
4
5
4
4
4
4
5
5
5
5
5
5
5
5
5
5
5
5
5
5
5
5
5
5
5
4
5
5
4
4
4
4
4
5
5
4
5
4
5
5
6
5
6
6
6
6
6
6
6
6
7
7
7
7
7
7
7
7
7
6
6
6
6
6
5
6
6
5
5
5
5
5
5
5
5
4
4
4
4
4
4
4
4
4
5
4
5
5
5
5
5
5
5
5
5
5
5
5
5
5
5
5
4
5
4
4
4
4
4
3
4
3
3
3
2
3
3
3
3
2
2
3
3
3
3
3
4
3
4
4
5
4
5
5
5
5
5
5
5
6
6
7
6
6
7
6
6
5
6
5
6
5
5
5
4
4
4
4
4
4
4
4
4
4
3
3
3
3
3
3
3
3
3
3
3
4
4
4
4
5
5
5
6
6
6
7
7
7
7
7
7
6
6
7
6
7
7
6
7
6
5
5
5
5
5
5
4
5
4
4
4
4
4
3
3
3
3
3
3
4
4
3
4
5
4
5
5
4
4
5
5
5
5
5
5
6
6
6
6
6
6
7
6
6
6
6
5
5
4
4
3
4
4
5
5
5
5
5
4
4
4
4
3
3
3
3
4
4
4
4
4
4
4
5
5
4
4
5
5
5
5
5
5
5
5
5
5
5
4
5
5
5
5
5
6
5
5
5
5
5
5
4
5
4
4
4
4
4
4
4
4
4
5
4
5
5
4
4
4
4
4
4
4
4
5
5
5
5
5
5
5
5
5
5
5
5
5
5
5
5
5
5
5
5
5
5
5
5
5
5
5
5
5
4
4
4
4
4
4
4
4
5
5
4
5
5
4
4
4
4
4
4
4
4
4
4
4
4
4
4
4
4
4
5
4
5
4
5
5
5
4
5
5
5
4
5
5
5
5
5
5
5
5
5
5
5
4
5
4
5
4
4
4
5
4
4
5
4
4
4
4
4
4
4
4
4
4
4
4
4
5
4
5
5
5
5
5
5
5
5
5
5
5
5
5
5
5
5
5
5
6
5
5
5
6
5
5
5
5
5
5
5
4
4
5
5
4
4
4
4
4
4
4
4
4
4
4
4
4
4
4
4
4
4
4
4
5
4
4
4
4
4
4
4
4
5
4
5
4
5
5
4
4
4
4
5
5
5
4
4
4
4
4
4
4
4
4
4
4
4
4
4
4
3
4
4
4
4
4
4
4
4
4
4
4
4
4
4
4
4
4
4
4
4
5
5
4
4
5
4
5
6
6
7
8
8
8
9
8
8
7
7
7
6
6
5
4
4
3
3
3
4
3
2
1
1
1
2
2
2
2
2
1
1
4
5
7
6
6
6
8
9
9
9
8
8
7
7
7
5
5
6
6
5
6
6
6
5
6
8
11
17
21
27
33
36
39
45
52
58
62
67
70
71
68
63
54
44
34
24
16
11
6
-1
-9
-15
-21
-26
-32
-40
-44
-45
-46
-48
-45
-39
-33
-25
-20
-16
-14
-13
-11
-8
-5
-4
-3
3
12
19
23
26
29
28
21
11
1
-7
-12
-16
-19
-19
-20
-20
-19
-17
-16
-15
-15
-12
-10
-5
0
1
3
3
3
4
6
5
4
3
4
4
4
4
4
4
7
13
20
26
29
29
27
23
17
10
4
3
5
11
15
18
19
16
14
11
9
6
3
2
2
3
5
6
7
6
5
6
9
8
7
5
1
0
-3
-4
-3
-1
1
2
3
3
2
-2
-4
-6
-7
-5
-5
-4
-4
-4
-6
-9
-8
-5
-3
-1
2
5
12
18
23
26
26
24
22
20
19
15
8
2
-2
-5
-6
-4
-2
1
4
4
5
5
5
5
6
6
6
7
9
12
16
23
30
32
30
24
16
8
5
5
5
4
5
7
8
12
12
10
5
0
-3
-4
-2
1
5
11
14
14
11
6
2
-3
-6
-10
-12
-11
-5
1
6
9
9
7
3
0
-4
-5
-8
-8
-8
-7
-3
-1
0
0
0
-3
-4
-4
-4
-3
-1
0
0
2
2
2
1
-1
-4
-5
-4
-2
1
4
8
10
11
10
9
7
4
2
0
-2
-1
0
1
5
8
9
10
10
7
6
5
5
5
7
9
10
11
11
10
8
8
8
8
10
12
13
15
16
16
15
14
14
13
13
13
12
10
9
9
8
8
8
8
8
8
7
6
5
5
5
5
5
6
6
5
4
4
2
1
1
0
2
4
5
7
9
9
8
7
7
4
3
3
2
1
0
0
0
1
2
2
3
4
4
4
2
1
0
-2
-3
-4
-4
-3
-2
-2
-1
0
1
2
4
5
5
5
4
3
2
1
0
0
0
0
0
3
4
5
6
7
8
8
7
8
8
7
7
8
6
7
8
8
8
8
8
8
10
11
11
11
10
8
6
5
4
4
5
7
8
10
11
12
13
13
12
12
10
9
7
6
5
4
4
4
4
5
6
7
7
7
8
8
8
9
10
10
10
9
8
6
5
4
4
4
5
6
7
8
8
8
7
5
4
2
0
0
0
-1
0
1
1
1
2
2
3
3
3
3
4
4
3
4
4
4
3
2
1
2
2
3
2
1
2
2
3
4
4
3
3
2
1
3
2
3
4
5
6
7
8
8
8
8
7
6
5
5
5
6
6
6
6
6
6
5
6
7
7
8
8
8
9
8
7
8
8
8
9
9
9
10
10
10
10
10
11
11
11
12
11
11
10
9
8
8
7
6
6
5
5
5
3
3
3
2
1
1
1
1
1
3
2
1
1
2
3
2
3
3
3
3
4
4
5
5
5
5
5
6
5
6
7
7
7
7
7
7
7
6
5
5
4
4
4
4
5
5
5
5
4
4
5
4
3
3
3
3
3
4
3
4
3
4
3
3
3
3
3
4
4
4
5
5
5
7
6
7
7
6
7
7
7
8
7
8
7
7
7
8
8
8
9
9
9
9
10
9
9
8
8
8
7
7
7
7
7
8
7
7
8
7
7
6
6
5
5
5
5
5
5
5
5
5
5
5
4
4
4
5
4
5
5
5
5
4
4
4
3
4
4
4
5
5
6
5
5
5
5
5
5
5
4
4
5
4
5
4
4
4
3
4
3
3
3
3
2
2
3
3
3
4
3
4
4
4
3
4
4
5
5
5
5
6
6
6
5
6
6
7
7
8
8
8
8
8
8
8
7
7
7
7
8
7
7
7
7
7
8
7
7
7
7
7
5
6
6
5
6
5
5
5
5
5
4
5
5
5
5
5
5
6
6
7
7
8
9
9
10
10
10
10
10
9
8
8
7
7
5
5
4
4
4
3
3
3
2
1
1
1
0
0
0
0
0
1
1
1
2
3
4
5
5
5
6
5
5
5
5
6
6
5
5
6
5
5
5
5
5
5
5
5
4
4
5
4
5
6
5
5
5
5
3
3
3
2
2
2
2
3
4
4
4
5
6
6
7
7
7
8
8
8
6
7
6
6
6
5
5
5
5
5
6
6
6
7
7
8
7
6
7
7
6
6
5
4
5
4
3
3
2
2
1
1
1
3
2
4
4
4
4
4
4
3
4
4
3
4
4
5
5
5
5
5
5
5
5
5
4
5
5
5
4
4
4
4
3
3
3
3
4
4
4
4
5
5
5
5
4
4
4
4
3
3
4
4
3
4
4
4
5
5
5
5
5
5
5
5
5
4
4
4
3
3
4
4
5
4
5
5
5
5
5
5
6
5
5
5
6
5
5
6
5
5
5
6
5
6
5
5
6
6
6
5
6
5
5
4
4
4
4
4
4
3
4
4
4
3
4
3
3
3
3
3
3
3
3
2
3
3
2
4
3
3
4
5
4
5
5
5
5
5
5
5
5
5
4
4
5
4
4
4
4
4
4
4
4
3
4
4
3
4
4
3
3
4
4
4
4
4
4
4
4
4
4
4
5
4
4
4
4
4
5
4
5
5
5
5
5
5
6
6
6
7
6
6
6
5
5
5
4
4
5
5
4
4
5
4
3
4
4
4
4
5
4
4
4
4
3
4
4
3
4
3
3
3
3
4
4
4
4
3
3
4
4
3
3
3
3
3
3
4
3
4
4
4
4
5
5
5
5
5
5
5
5
4
5
5
5
3
4
4
4
4
4
4
3
4
4
4
4
3
3
2
4
3
3
3
3
2
4
4
3
4
4
5
5
5
5
4
5
4
4
4
4
4
4
4
5
5
5
6
6
6
7
6
5
5
5
5
4
5
4
3
3
3
4
4
4
4
4
5
5
4
4
4
4
4
4
4
4
3
4
4
3
5
4
4
5
5
4
4
5
5
4
4
4
4
4
4
4
3
4
3
4
4
3
3
4
4
4
3
3
4
3
3
3
2
3
3
3
3
3
3
3
3
3
3
4
4
5
4
4
4
4
4
4
4
4
4
5
5
5
5
5
5
5
5
5
5
5
5
4
5
5
5
4
4
5
4
4
4
3
4
4
3
4
4
4
4
4
4
4
4
5
4
5
4
4
3
4
4
4
4
4
4
4
4
4
4
4
4
3
4
4
3
4
4
4
4
4
4
5
4
4
4
4
5
4
4
4
4
4
4
2
4
4
3
4
4
4
4
4
4
4
4
4
3
4
4
3
3
4
3
4
4
4
5
5
4
5
5
4
5
4
4
5
4
4
4
4
4
4
4
4
4
4
4
4
4
4
3
4
4
3
4
4
5
4
4
4
4
4
3
4
5
5
5
4
4
4
4
4
4
4
4
4
5
4
5
5
5
4
5
5
5
4
5
5
5
5
5
4
4
5
4
3
4
4
4
4
4
4
4
4
4
3
4
5
4
4
4
3
3
4
4
4
4
4
4
4
5
4
4
4
5
4
4
5
4
5
4
4
4
5
4
4
5
5
5
5
4
4
4
5
4
4
3
4
4
4
4
4
4
3
4
4
4
4
4
4
4
4
4
4
4
4
3
4
4
4
4
4
5
4
4
5
5
4
4
4
4
5
4
5
4
4
4
5
4
4
4
4
5
4
5
5
5
5
4
4
5
5
5
4
5
5
5
5
5
5
5
5
5
4
5
5
5
4
5
5
5
5
5
5
5
5
5
5
5
5
5
4
5
5
5
4
5
4
5
5
4
4
4
4
4
4
4
5
4
4
4
4
4
4
4
4
4
4
4
3
4
3
4
4
4
4
4
4
4
5
4
5
5
5
5
5
5
5
5
5
5
4
4
5
5
5
5
5
5
5
6
5
5
5
5
4
5
4
5
4
4
5
5
5
5
4
5
5
5
4
5
4
5
5
5
5
4
4
5
4
4
5
4
5
5
5
5
5
5
4
4
4
4
4
5
5
4
5
5
5
5
5
4
5
5
5
4
4
4
4
4
4
4
4
4
5
4
4
4
4
4
4
4
5
5
5
5
5
5
4
5
5
5
5
5
5
5
4
5
5
5
5
5
5
5
5
5
5
5
5
4
4
5
4
5
4
5
5
5
5
5
5
5
5
5
5
5
4
4
4
4
4
4
5
5
5
4
5
5
5
5
6
5
5
5
5
5
5
5
5
4
4
4
5
5
5
5
5
5
5
5
4
5
5
5
5
4
5
5
5
4
5
5
5
4
5
5
4
5
5
5
5
5
5
4
5
5
5
4
4
5
5
5
5
5
5
5
5
5
5
5
5
5
5
5
4
4
5
5
5
5
5
5
5
5
5
5
5
5
5
5
4
4
5
4
4
5
5
5
5
5
6
5
5
5
4
5
5
4
4
5
5
5
4
5
5
5
5
5
5
5
5
5
5
5
5
5
5
5
5
4
5
4
4
5
5
5
5
5
5
5
5
5
5
5
5
4
4
5
5
5
5
5
5
5
5
5
5
5
5
5
6
5
5
5
5
4
5
5
5
5
5
5
5
5
5
5
5
6
5
5
5
5
5
5
5
5
5
5
5
5
5
5
5
5
5
5
5
5
4
4
5
5
5
5
5
5
5
5
5
5
5
5
5
5
5
5
5
5
5
5
5
5
5
6
5
5
5
6
5
5
5
5
5
5
5
5
5
5
5
5
5
4
5
5
5
4
5
5
5
5
5
5
5
5
5
5
5
5
4
4
4
5
5
5
6
5
5
5
6
5
5
5
5
5
5
5
5
6
6
5
5
6
5
5
5
6
5
6
5
5
5
6
5
5
5
5
5
5
6
5
4
5
5
5
5
5
5
5
5
4
5
5
5
5
5
5
5
5
5
5
5
5
5
5
5
5
5
5
5
5
5
5
5
5
5
5
5
5
5
5
4
5
5
4
5
5
5
5
5
5
5
5
6
5
5
5
5
5
5
5
5
5
6
6
5
6
6
6
5
5
5
4
6
5
5
5
6
5
5
6
5
5
5
6
5
5
5
5
4
5
5
5
5
4
5
5
5
5
5
5
5
5
5
5
5
5
5
5
5
5
6
5
5
6
6
6
5
6
6
5
7
6
6
6
6
5
6
5
5
5
6
6
6
6
5
5
6
6
6
5
5
6
5
5
5
5
5
5
5
5
5
5
5
5
5
5
5
5
5
5
5
5
5
5
5
5
5
4
5
5
4
5
5
5
5
5
5
5
5
5
5
5
5
5
5
6
6
5
6
6
5
5
5
5
6
6
6
6
5
5
6
5
6
6
5
6
6
5
5
6
6
5
5
6
6
6
6
5
5
5
6
5
5
6
5
5
6
5
6
6
6
5
5
5
5
4
5
5
5
5
5
5
5
5
5
5
5
5
5
5
5
5
5
5
5
5
5
6
5
6
5
5
5
5
6
5
6
6
6
6
6
7
6
5
7
6
6
6
6
5
6
6
6
6
6
6
5
6
6
6
6
5
6
5
5
5
5
5
5
5
5
5
5
4
5
5
5
5
5
5
5
5
5
5
5
5
5
5
5
5
5
5
5
5
5
6
5
5
5
5
5
5
6
5
5
5
5
5
5
6
5
5
5
5
5
5
5
6
5
5
5
5
5
5
5
5
5
5
6
5
5
6
6
6
5
6
6
5
5
6
6
5
6
5
6
6
5
6
5
5
5
5
5
5
5
5
5
5
5
5
5
5
5
5
5
5
5
5
4
5
5
5
5
5
5
5
5
5
4
5
5
5
5
5
5
5
5
5
5
5
6
5
5
6
5
5
5
5
5
5
5
6
5
5
5
5
5
5
5
5
5
5
5
5
5
4
5
5
5
5
5
5
5
5
5
5
5
5
5
5
5
5
5
5
5
5
5
5
5
5
5
6
5
5
5
5
5
5
5
5
5
5
5
5
5
5
5
5
5
5
5
5
5
5
5
5
5
4
5
5
5
5
5
5
5
5
5
5
5
5
5
5
5
5
5
5
5
5
5
5
5
5
6
5
5
5
5
5
5
5
5
5
5
5
5
5
5
5
5
5
5
5
5
5
5
4
5
5
5
5
5
5
5
5
5
5
5
5
5
5
5
4
5
4
5
5
5
5
4
5
5
5
5
5
5
5
4
4
5
5
5
5
4
5
5
4
4
4
5
5
5
5
4
5
4
5
4
5
5
5
5
4
5
5
5
4
4
5
5
5
5
5
5
5
5
5
5
5
5
5
5
5
5
5
5
4
5
5
5
5
5
4
5
4
5
5
5
4
4
4
4
5
4
4
5
5
4
4
4
5
4
5
5
5
5
5
4
4
4
5
4
5
5
4
5
4
5
4
5
5
5
5
5
5
5
5
5
5
5
5
4
5
5
4
4
5
5
5
5
5
5
4
5
5
5
5
5
5
5
4
5
5
5
4
4
5
5
5
5
5
4
4
4
5
4
5
5
4
5
5
4
4
5
4
4
4
5
4
4
4
4
4
4
5
4
4
4
4
3
4
4
4
4
4
4
4
4
4
4
4
4
4
4
4
4
3
4
4
4
4
4
4
5
4
4
4
4
4
4
4
4
4
4
4
4
4
4
4
4
4
4
5
4
4
4
4
5
5
4
5
4
4
5
4
4
4
4
4
5
4
5
4
4
4
4
4
4
4
4
4
4
4
4
5
5
4
5
5
4
4
4
4
4
4
4
4
4
4
4
4
4
4
4
5
5
4
4
4
4
3
4
5
4
4
4
4
4
5
4
5
4
4
4
4
4
4
4
5
4
4
4
4
4
4
4
4
4
5
5
4
4
5
5
4
4
4
5
4
5
4
4
5
4

