mediciones/valido_3.csv

Memory Length,4000,
Trigger Level,8.800E-01,
Source,CH1,
Vertical Units,V,
Vertical Scale,2.000E+00,
Vertical Position,-8.000E-02,
Horizontal Units,s,
Horizontal Scale,2.500E-03,
Horizontal Position,1.010E-02,
Horizontal Mode,Main,
Sampling Period,1.000E-05,
Firmware, V1.14,
Waveform Data,
4
4
5
5
5
4
5
5
5
4
5
4
5
5
4
5
5
5
4
5
4
5
5
5
4
5
5
4
5
5
4
5
5
5
5
5
5
4
5
5
5
4
5
5
5
5
5
5
5
5
5
5
5
5
5
5
5
5
5
5
5
5
5
5
5
5
5
5
5
5
4
5
5
5
4
5
5
5
5
5
4
5
5
5
5
5
4
4
4
5
4
5
5
5
4
4
4
4
5
5
5
5
5
4
4
4
4
4
4
5
5
5
5
5
5
5
5
4
5
5
4
5
5
4
5
5
5
5
5
5
4
5
5
5
5
5
5
4
5
5
4
5
5
5
4
5
5
5
4
5
4
5
5
4
5
5
5
5
4
5
4
4
5
5
4
5
5
5
4
4
5
4
5
5
4
5
5
5
5
5
5
4
4
5
4
5
5
4
5
5
5
4
5
5
5
4
5
4
4
5
5
5
5
5
5
5
5
5
5
5
5
5
5
5
4
4
5
4
4
4
5
5
5
4
5
4
5
5
4
5
4
4
5
4
5
4
5
5
4
5
4
4
5
5
5
5
5
5
4
5
5
5
5
5
5
5
5
5
5
4
5
5
5
5
6
5
4
5
5
4
5
5
5
4
5
5
4
5
5
5
5
5
4
4
5
5
5
5
5
5
4
5
5
5
4
5
5
5
5
4
4
5
5
4
5
5
5
5
4
5
4
5
4
4
5
5
4
5
5
5
4
5
5
5
4
5
5
4
5
5
4
5
4
5
5
5
5
4
4
5
4
5
5
4
4
5
5
4
5
5
5
4
5
5
4
5
5
4
4
4
5
4
5
5
4
4
5
4
4
5
5
5
4
4
4
4
5
4
4
5
4
4
4
5
4
4
5
5
4
4
4
4
4
5
5
4
4
4
4
4
5
5
4
4
4
4
4
5
5
4
5
5
4
5
5
4
4
5
4
4
4
5
4
4
5
5
4
4
5
4
5
5
4
4
4
4
5
4
4
4
4
5
5
5
4
5
5
5
5
5
4
5
5
5
5
5
4
4
5
5
4
5
5
5
5
5
4
5
5
5
4
5
5
5
5
6
6
6
7
7
6
6
8
8
8
8
8
7
7
7
7
7
7
6
5
5
5
4
4
3
4
3
3
3
3
3
3
3
3
4
3
3
3
4
4
5
5
5
5
5
5
5
5
5
5
5
5
5
4
5
5
4
4
4
4
4
3
4
3
3
3
3
2
3
2
2
2
3
2
2
3
3
3
4
4
4
4
4
4
5
5
5
5
5
5
5
5
6
6
5
6
7
6
6
6
6
6
5
5
5
4
5
4
4
4
4
4
4
4
4
4
4
4
4
4
4
4
4
4
4
5
5
5
5
6
6
6
7
7
6
7
6
6
5
6
6
5
5
5
5
5
5
5
5
5
5
5
5
4
5
4
5
5
4
4
5
4
4
4
5
4
4
4
4
4
4
4
3
3
4
3
3
3
3
3
4
4
4
4
4
4
4
5
5
5
5
5
6
5
6
6
6
5
5
6
5
6
5
5
5
5
5
4
4
4
4
4
5
5
5
4
4
4
4
3
4
4
4
4
4
4
5
5
5
5
5
4
5
4
5
5
5
5
5
5
5
5
5
5
5
5
5
5
6
6
6
6
7
6
5
5
5
5
5
5
5
5
5
5
4
4
4
4
4
4
4
5
4
5
4
4
4
4
4
4
4
4
4
5
4
4
4
4
4
4
4
4
4
4
5
5
5
5
5
5
5
5
4
5
5
4
5
5
5
5
4
5
4
4
4
4
4
4
4
4
4
4
3
3
3
3
4
3
3
4
5
4
4
4
4
4
4
4
4
4
4
5
5
5
5
5
5
5
5
5
5
5
5
5
5
5
5
5
5
4
4
5
5
4
5
5
5
5
5
4
5
5
4
4
5
4
4
4
5
5
5
5
5
5
5
5
5
5
4
5
5
5
4
4
4
5
4
5
5
5
5
5
5
5
5
5
4
5
5
4
4
4
5
4
5
4
4
4
4
4
4
4
4
4
4
4
4
4
4
4
4
4
4
4
4
4
4
4
4
4
4
4
4
5
3
4
4
3
4
4
4
4
4
4
4
5
4
4
4
4
4
3
4
4
3
4
4
3
3
4
4
3
4
4
4
3
4
4
4
3
4
4
4
4
4
4
4
4
5
5
4
4
4
4
4
4
4
4
4
4
4
4
4
5
5
4
5
5
5
6
7
7
8
8
8
8
8
8
8
8
7
7
5
5
4
3
3
4
4
3
3
2
1
1
1
1
1
3
2
1
1
2
3
5
7
6
7
6
7
8
8
8
8
8
7
6
6
5
4
5
6
7
6
7
7
9
13
17
22
28
35
41
45
48
50
52
52
54
58
62
62
61
52
44
35
27
17
10
1
-10
-20
-28
-36
-39
-39
-37
-38
-38
-37
-35
-32
-29
-25
-20
-18
-19
-20
-16
-11
-4
2
8
11
12
10
13
18
24
24
23
21
16
7
-3
-10
-18
-24
-27
-26
-22
-16
-11
-9
-10
-12
-12
-10
-3
0
0
0
0
1
3
8
12
14
13
10
7
2
1
1
3
13
24
32
35
37
35
32
25
16
5
-2
-7
-10
-9
-6
-6
-7
-6
-1
4
12
19
24
24
23
21
16
13
12
10
10
7
4
4
4
5
5
6
6
4
3
4
3
1
-2
-5
-7
-7
-7
-9
-11
-12
-14
-16
-19
-22
-27
-29
-31
-27
-19
-9
-4
-1
2
5
6
6
5
5
4
4
4
5
4
3
1
-1
1
2
4
10
15
20
21
20
15
11
8
8
10
16
19
21
22
24
24
20
15
11
7
7
6
4
6
7
8
8
10
13
19
25
28
28
23
17
11
5
4
3
1
0
-1
-3
-4
-4
-3
-3
-3
-4
-6
-6
-4
-3
-4
-5
-9
-14
-16
-18
-16
-15
-14
-12
-12
-10
-8
-6
-4
-3
-3
-3
0
3
5
6
5
3
0
-2
-3
-2
1
4
6
10
13
18
22
24
25
23
19
16
12
7
5
2
0
-1
0
3
4
5
6
4
3
3
2
2
3
3
3
3
3
1
0
1
0
0
1
4
6
7
8
10
10
10
10
8
8
9
8
8
8
8
9
12
13
15
17
18
19
19
19
17
15
13
12
9
7
5
3
3
3
3
3
4
4
4
5
5
4
3
2
3
1
0
0
-2
-3
-3
-3
-2
-2
0
1
0
1
1
0
0
0
-1
-2
-2
-2
-3
-3
-2
-1
1
2
3
4
5
6
5
4
3
3
2
4
4
4
4
4
4
5
4
4
4
3
2
1
0
1
0
-1
-1
0
0
0
1
2
2
3
3
3
5
6
5
5
5
5
4
5
5
6
7
10
11
12
13
15
14
14
12
10
10
8
8
6
7
8
8
8
8
9
8
9
9
9
9
10
9
8
9
8
7
7
7
5
5
4
3
2
3
3
2
3
4
3
3
4
2
2
2
3
3
4
6
7
8
8
9
9
10
9
9
8
9
8
7
8
8
8
8
9
8
7
7
6
5
5
4
4
3
3
2
1
1
0
0
0
0
0
1
1
1
1
1
2
1
1
1
0
0
1
0
1
2
3
4
4
4
5
4
4
5
5
5
5
5
5
5
6
6
7
7
8
8
8
9
10
11
10
9
9
9
8
7
7
6
6
5
6
6
7
8
8
8
8
9
9
9
10
9
8
8
8
8
7
8
8
7
6
6
6
6
6
6
7
7
8
9
8
10
10
8
9
8
8
8
7
6
5
5
5
5
4
4
4
4
4
4
3
3
2
1
1
1
0
0
0
1
1
1
2
2
3
3
3
3
4
4
4
4
3
3
3
3
3
4
4
4
4
4
5
4
4
5
4
4
5
5
5
5
6
6
6
6
6
7
6
6
6
5
5
5
4
4
5
4
4
4
4
4
4
4
4
4
4
4
5
5
5
5
4
5
5
5
6
7
7
7
8
8
8
9
9
9
9
9
9
9
8
8
7
7
5
5
5
5
5
5
5
6
5
5
5
4
4
3
3
2
2
2
1
1
1
1
1
1
2
2
2
2
3
3
3
4
4
5
6
5
6
7
7
8
8
8
8
8
8
8
7
7
6
6
5
6
5
6
5
6
5
6
5
5
5
4
3
3
2
1
1
1
1
1
2
3
3
4
4
4
4
4
5
5
4
4
4
4
5
5
5
6
6
7
7
8
8
8
8
8
8
7
6
6
5
5
4
4
4
5
5
5
5
5
5
5
5
4
4
4
3
3
3
3
2
2
3
2
2
3
3
4
5
5
5
5
5
5
5
4
4
3
4
4
4
5
5
6
6
6
5
6
5
5
5
5
5
4
3
4
3
3
4
4
3
4
4
4
5
5
5
5
5
4
4
3
2
2
2
1
2
2
3
3
4
4
5
4
4
5
4
5
4
5
5
5
4
4
4
4
4
4
5
5
6
5
5
6
5
5
5
5
5
4
4
5
5
5
5
5
5
5
5
4
4
4
3
3
3
2
3
3
3
3
3
3
2
3
3
3
4
3
4
4
5
5
5
5
5
5
6
5
6
6
6
6
6
6
6
6
6
6
5
5
6
4
4
5
4
4
4
4
3
2
3
2
1
2
1
1
1
1
1
1
1
1
2
3
4
4
4
4
5
5
5
5
4
5
4
4
4
5
4
5
6
6
6
7
7
7
6
7
6
6
5
5
4
4
4
4
3
3
4
4
4
4
4
4
3
3
2
3
3
3
4
3
4
3
4
5
4
5
5
5
5
5
5
5
5
5
4
4
4
4
4
4
4
4
4
4
3
4
4
4
3
4
3
3
3
3
3
2
3
2
3
3
3
3
3
4
4
5
5
4
5
5
5
4
5
5
5
4
5
5
4
5
5
4
5
5
5
5
5
5
4
5
5
4
5
5
4
4
4
4
3
4
4
3
4
4
3
3
3
4
3
3
3
3
3
3
3
3
4
3
3
4
4
3
3
4
4
4
4
4
4
4
5
4
4
5
5
5
5
4
4
5
5
4
4
5
5
5
5
5
4
4
5
4
4
4
4
3
4
4
3
3
4
3
4
3
4
3
4
4
4
3
3
4
3
4
3
3
3
4
4
4
4
4
4
4
4
4
4
4
4
3
4
5
5
5
5
5
5
6
5
4
5
5
5
4
4
5
4
4
4
4
3
4
4
4
4
4
4
4
4
4
4
4
4
3
3
4
3
4
4
4
4
5
5
5
4
5
4
4
5
4
4
5
5
5
4
4
5
4
5
5
4
5
5
4
4
4
4
4
4
3
3
3
3
4
3
4
5
4
4
5
4
4
5
4
4
4
4
3
4
4
4
4
4
4
4
4
5
5
4
5
6
4
5
4
4
3
4
4
4
4
4
3
4
4
4
3
4
4
4
4
4
4
3
4
4
4
3
4
4
4
4
4
3
4
5
4
4
4
4
4
4
4
4
3
4
3
4
4
4
4
4
4
4
4
4
4
4
5
5
3
4
5
4
4
5
5
4
5
4
5
4
5
4
4
4
5
4
5
4
4
4
4
4
3
3
4
3
4
4
4
4
4
4
3
4
4
4
4
4
4
4
4
4
4
4
4
4
4
5
5
4
4
5
4
5
4
4
4
4
5
4
4
3
4
4
4
4
4
3
4
4
4
4
4
4
4
4
4
4
4
4
4
4
4
4
4
4
4
4
5
5
4
5
4
5
4
5
4
4
4
4
4
3
4
4
4
4
4
4
4
4
4
4
4
4
4
4
4
4
4
4
4
3
4
4
5
5
4
4
5
4
5
4
5
5
4
4
4
5
4
5
4
4
4
5
5
4
5
4
4
4
4
5
4
4
4
4
4
4
4
3
4
3
4
4
4
5
4
4
4
4
4
4
4
4
4
4
4
4
4
4
5
4
4
4
4
5
4
4
5
4
4
4
4
4
4
4
4
4
4
4
4
4
5
4
4
4
4
5
4
4
4
4
5
4
5
4
4
4
4
4
4
5
4
4
4
5
5
4
5
4
4
5
4
4
4
4
4
5
4
4
4
4
4
4
4
4
4
4
5
4
4
4
4
4
4
4
4
4
4
4
4
4
5
5
4
4
5
5
5
4
5
5
5
5
4
5
5
5
4
5
5
5
5
5
5
4
5
5
4
4
4
4
4
4
4
4
4
4
4
4
4
5
4
4
4
4
4
4
4
4
4
4
4
5
4
4
5
4
5
5
5
5
5
4
5
5
4
5
5
4
4
5
4
4
4
4
4
4
4
5
4
4
5
5
5
4
5
4
4
4
4
4
4
4
4
3
4
4
4
4
4
4
4
4
4
5
4
5
4
4
4
4
4
4
4
4
4
4
4
5
5
5
5
5
5
5
5
5
5
5
4
4
4
4
4
4
4
4
4
5
5
4
5
4
4
4
4
4
4
4
4
4
4
4
4
5
4
4
5
5
5
5
5
5
5
5
5
4
5
4
4
4
4
5
4
5
4
5
4
5
5
5
4
4
4
4
5
4
5
4
4
4
4
4
4
4
4
4
4
5
5
5
5
5
5
4
5
4
4
5
5
4
5
5
5
5
5
5
5
5
5
5
5
5
5
5
5
5
5
5
5
5
4
4
5
4
5
5
5
5
5
4
4
4
5
4
4
4
4
5
4
4
4
4
4
4
5
5
5
4
5
5
5
5
5
4
4
5
5
5
5
4
4
5
5
5
5
5
5
5
5
4
5
4
4
4
4
4
5
5
5
4
5
4
5
5
5
4
5
4
4
5
4
4
5
5
4
5
5
5
4
5
5
4
5
5
4
4
5
5
5
5
5
5
5
5
5
5
5
4
5
5
5
4
5
5
4
5
5
5
5
5
5
5
5
4
5
5
5
5
4
5
5
4
5
5
5
4
5
5
5
5
5
5
6
5
5
5
5
5
5
5
5
5
5
5
5
5
5
5
5
5
6
5
5
6
5
5
5
5
5
5
5
5
4
5
5
4
5
5
5
5
5
4
5
5
5
4
5
4
5
4
4
5
5
5
4
5
5
5
5
5
5
6
6
5
6
5
5
5
5
4
5
5
5
5
6
5
5
6
6
5
5
5
5
5
5
5
4
5
5
4
5
5
4
4
5
5
5
5
5
5
5
5
5
4
5
4
5
5
5
5
5
5
4
5
5
5
5
5
5
5
5
5
5
5
5
5
5
5
5
5
5
5
5
5
5
5
5
5
5
4
5
5
4
5
5
5
4
4
5
5
5
5
5
5
5
6
5
5
5
5
5
5
6
5
5
5
5
5
6
5
5
6
5
6
6
7
5
6
6
5
5
5
5
5
5
5
4
5
5
5
4
5
5
5
5
5
5
4
5
5
5
4
6
5
5
5
5
5
5
6
5
5
6
6
5
6
6
6
6
6
5
5
5
5
5
6
6
5
6
6
5
5
5
5
5
5
6
5
4
5
5
5
5
5
4
5
5
5
5
5
5
5
4
5
5
4
5
5
4
5
5
5
5
5
5
5
6
5
5
5
6
6
5
6
5
5
5
5
5
5
5
5
5
6
6
5
5
6
5
5
6
5
5
6
5
5
5
5
5
5
5
5
5
5
6
5
5
6
5
5
6
5
5
6
5
6
6
6
5
5
5
6
5
5
6
6
5
5
6
5
5
5
5
5
5
5
5
5
5
5
5
5
5
5
5
5
5
5
5
5
5
5
5
5
5
5
5
5
5
5
5
5
6
5
5
6
6
5
5
6
6
6
6
6
5
6
5
6
6
5
5
5
5
5
5
5
6
5
5
5
5
5
5
5
5
5
5
5
5
5
5
4
5
5
4
5
5
5
5
5
5
5
5
6
5
5
5
6
6
5
5
5
5
6
5
5
5
5
5
5
5
5
5
5
6
5
5
5
5
5
6
6
4
5
5
4
4
5
5
5
5
5
5
5
5
5
5
5
5
4
5
5
4
5
5
5
5
5
5
5
5
5
6
5
5
5
5
5
6
5
5
5
5
5
5
5
5
5
6
5
5
5
6
5
5
5
5
5
5
5
5
5
4
5
4
5
5
5
5
5
5
5
5
6
5
5
5
5
5
5
5
5
5
5
5
5
5
5
5
5
5
5
5
5
4
5
5
4
5
4
5
5
5
5
4
5
5
5
4
5
5
5
5
5
5
4
5
5
5
5
5
5
5
5
5
5
5
5
5
5
5
5
5
5
5
5
5
5
5
5
5
5
5
5
5
4
5
5
5
4
5
5
4
4
5
4
4
4
4
4
4
5
4
5
5
4
4
5
4
4
5
4
4
4
5
5
5
5
5
5
5
5
5
5
5
5
5
5
5
5
5
5
5
5
5
5
5
4
5
5
4
5
5
5
5
5
5
4
5
5
5
5
5
5
4
5
4
4
5
5
4
5
5
4
4
5
5
4
5
5
5
5
4
5
4
5
5
5
4
4
4
5
4
4
5
5
4
4
4
4
4
4
4
4
4
4
4
5
4
5
5
4
4
5
4
4
4
4
5
5
4
4
4
4
4
4
5
5
5
5
5
5
4
4
5
4
4
4
4
4
4
5
4
4
5
4
4
4
4
4
4
4
4
4
4
4
4
4
4
4
4
4
4
4
4
4
5
5
5
4
4
5
4
4
4
5
4
5
5
5
5
5
5
4
4
5
5
4
5
5
5
4
5
4
5
4
4
4
4
4
5
4
4
4
4
5
4
4
4
4
4
4
4
4
4
4
4
4
4
4
4
5
4
4
4
5
4
4
5
5
4
5
5
4
5
5
4
4
4
4
4
4
4
4
4
4
4
4
5
4
4
4
4
4
4
5
4
4
4
4
4
4
4
4
4
4
4
4
4
4
4
4
4
4
4
4
4
4
4
4
4
4
4
5
4
4
4
4
4
4
4
4
4
4
4
4
4
4
4
4
4
3
4
3
3
4
4
4
3
4
4
4
4
4
4
4
4
4
4
4
5
3
4
4
4
4
5
5
4
4
4
4
4
4
4
4
5
4
4
4
5
4
4
4
5
4
5
4
4
4
4
4
4
4
4
4
4
4
4
4
4
4
4
4
4
4
4
4
4
5
4
4
4
4
4
5
4
4
4
4
4
4
4
4
4
4
4
4
4
4
5
4
4
4
4
4

