mediciones/valido_1.csv

Memory Length,4000,
Trigger Level,8.800E-01,
Source,CH1,
Vertical Units,V,
Vertical Scale,2.000E+00,
Vertical Position,-8.000E-02,
Horizontal Units,s,
Horizontal Scale,2.500E-03,
Horizontal Position,1.010E-02,
Horizontal Mode,Main,
Sampling Period,1.000E-05,
Firmware, V1.14,
Waveform Data,
4
4
4
5
5
5
5
4
5
5
5
5
5
5
4
4
5
5
5
4
5
5
5
5
5
5
5
5
5
5
4
5
4
4
4
4
5
4
5
5
4
5
4
5
4
5
4
5
4
4
4
4
4
5
5
5
5
5
4
5
5
4
5
5
5
4
5
5
5
4
5
5
5
5
5
5
5
5
5
4
4
5
5
5
5
5
5
5
5
5
5
5
4
5
5
4
5
5
5
5
4
5
5
5
5
4
5
5
4
5
5
5
4
5
5
5
4
5
5
5
5
4
5
5
5
5
5
5
5
5
5
4
4
5
5
4
5
5
4
5
5
5
4
5
5
4
4
5
5
4
5
5
5
5
5
4
5
5
5
5
4
4
5
5
5
5
4
5
5
5
5
5
5
5
5
5
5
5
5
6
5
5
5
5
4
5
4
5
4
5
5
5
5
5
5
5
5
4
4
5
4
5
5
4
5
5
5
4
5
5
4
5
5
5
5
4
4
5
5
5
4
5
5
5
4
5
5
4
5
5
5
5
5
5
4
5
5
5
4
5
5
5
5
4
4
5
5
5
5
5
5
5
5
5
5
5
5
5
4
5
5
5
5
5
5
5
5
4
5
5
5
5
5
5
4
5
4
5
4
5
5
4
4
5
5
5
5
5
5
4
5
5
5
5
5
4
5
5
5
5
5
5
5
5
5
5
5
5
5
5
5
5
4
5
5
5
4
5
5
5
5
5
5
5
5
5
5
5
5
4
5
5
5
4
5
5
4
5
5
5
4
5
5
5
5
4
5
4
5
5
5
5
5
5
5
5
5
5
5
5
5
5
5
5
5
5
4
5
5
5
5
5
5
4
4
5
4
4
4
4
4
5
5
5
4
5
5
4
5
4
4
5
4
4
4
4
5
4
4
4
5
4
5
5
4
5
5
5
5
5
4
5
5
5
4
5
4
5
5
5
5
5
5
4
4
4
4
4
5
5
4
4
4
5
4
5
5
5
5
5
5
5
5
5
5
5
5
5
5
5
5
5
5
4
4
5
5
5
4
5
4
4
5
4
5
4
4
5
4
5
4
5
5
5
6
5
5
6
6
6
7
6
7
7
8
7
6
7
7
6
6
6
6
7
6
7
6
7
6
6
5
5
5
5
5
5
4
4
3
3
3
4
4
4
4
4
4
3
4
4
4
5
5
5
5
5
5
5
5
5
6
6
6
5
5
5
5
5
5
5
4
4
4
3
4
3
3
3
2
2
2
2
3
3
3
3
3
4
3
4
4
4
4
4
4
4
4
5
4
5
5
5
6
6
6
6
6
6
7
6
6
7
5
5
5
4
4
5
4
5
5
4
4
4
4
4
3
4
3
3
3
4
3
4
4
4
4
4
4
3
4
5
5
5
6
5
5
6
7
7
6
6
7
7
7
7
6
6
6
6
5
5
6
5
5
5
5
5
5
5
5
5
5
5
5
4
4
4
4
4
4
4
4
4
4
4
3
3
3
3
3
4
4
4
4
4
4
5
6
6
5
5
6
6
6
7
6
6
6
5
6
5
5
5
5
5
6
6
6
6
5
5
5
4
3
2
3
3
3
3
3
3
3
3
4
4
3
4
4
4
4
5
5
5
5
5
5
5
4
4
5
6
6
5
6
6
6
6
5
5
5
5
5
5
5
5
5
5
5
5
5
5
5
4
5
5
5
4
4
4
4
4
4
4
4
4
4
4
5
5
5
5
5
5
5
4
4
4
5
4
5
5
5
5
6
5
6
6
5
5
5
6
5
5
5
5
5
5
4
4
4
5
5
5
4
5
5
4
4
4
4
4
4
3
3
3
3
4
4
4
4
4
4
5
4
5
5
4
4
4
4
4
5
5
5
5
5
5
5
5
5
5
5
5
5
6
5
5
5
4
4
4
4
5
4
5
4
5
5
5
4
4
4
4
4
4
4
4
3
4
4
4
5
5
5
5
5
5
4
5
5
5
5
5
5
5
5
5
5
5
5
5
5
6
5
5
5
5
5
5
4
4
4
4
4
5
4
5
5
4
4
4
4
4
4
3
5
4
4
4
4
4
4
4
4
3
4
4
5
5
4
4
4
4
4
4
4
4
5
4
5
5
5
5
5
5
5
4
5
4
4
4
4
4
4
5
4
4
4
4
4
3
4
4
4
4
4
4
4
4
4
4
3
4
4
4
5
5
4
4
4
5
4
4
5
4
5
5
5
4
5
5
4
5
5
6
6
7
8
8
9
9
8
8
8
8
8
7
7
5
5
4
4
4
4
4
2
1
0
0
0
1
1
2
2
1
1
1
3
5
6
7
6
6
7
8
8
8
8
8
8
7
6
5
5
6
7
8
7
6
6
6
5
5
6
9
14
21
26
30
34
39
44
49
51
52
51
49
48
45
41
36
31
25
20
15
9
2
-5
-12
-18
-25
-29
-36
-39
-38
-35
-31
-27
-24
-20
-17
-15
-13
-11
-11
-8
-4
-3
-1
3
9
17
22
24
21
20
19
16
10
4
-3
-7
-9
-8
-9
-12
-15
-16
-14
-10
-8
-6
-10
-11
-10
-7
-5
-1
0
1
3
7
10
12
11
11
8
7
2
-3
-5
-5
-4
1
8
14
17
20
21
20
14
8
0
-2
-1
2
6
10
11
11
8
6
8
9
11
11
11
9
8
8
9
12
13
12
10
10
9
9
7
5
1
-2
-4
-5
-4
-3
-3
1
6
12
16
18
17
15
12
8
2
-1
-3
-3
0
3
5
5
5
3
1
1
-1
-3
-3
-2
-2
-3
-2
-3
-4
-6
-7
-5
-4
-2
1
3
5
8
8
9
8
7
5
3
0
-2
-4
-4
-4
-4
-2
0
2
4
5
6
6
6
5
5
4
3
2
3
4
5
7
8
7
6
6
7
6
6
6
5
3
3
1
-1
0
0
0
1
2
3
3
4
5
5
5
6
6
7
7
6
4
2
2
1
3
4
5
6
6
6
5
4
3
3
2
4
3
5
6
8
8
6
5
4
4
6
8
8
9
10
10
8
7
5
4
3
2
2
2
2
4
4
5
5
5
4
5
5
5
6
5
5
5
5
4
4
4
5
5
5
5
5
4
4
3
2
3
3
4
5
5
5
5
5
4
6
6
6
7
8
8
7
7
6
6
7
8
8
9
10
10
10
9
8
7
6
5
5
5
5
5
5
5
4
4
3
3
2
2
2
2
1
1
0
0
0
2
2
4
5
5
6
5
4
4
3
3
2
3
3
2
3
3
1
2
1
1
1
1
2
3
3
3
4
4
4
4
3
4
4
5
5
5
5
4
3
3
1
1
2
3
4
5
5
5
6
7
7
7
7
6
6
7
7
7
6
5
4
4
3
2
3
3
3
3
3
4
5
5
5
5
6
5
5
5
5
4
4
4
4
5
6
6
6
6
4
4
5
5
5
6
7
8
7
7
7
6
7
6
7
6
7
7
7
6
6
6
5
6
6
7
7
7
6
6
5
6
6
5
6
6
6
7
6
6
6
5
5
4
4
3
3
3
3
4
4
5
5
5
5
4
3
3
1
1
1
1
2
3
4
4
5
6
6
5
6
6
6
6
6
6
7
7
6
6
5
4
4
4
5
5
6
7
8
8
8
7
5
5
4
4
4
5
5
5
5
7
7
8
8
7
8
8
8
8
8
8
8
7
7
6
5
5
4
5
4
4
5
4
4
5
4
4
4
4
4
3
4
4
4
5
6
6
6
7
6
6
6
7
6
8
8
8
8
8
8
8
8
7
7
7
7
7
7
7
5
5
5
4
3
3
3
4
4
4
5
4
5
4
4
4
4
3
4
4
4
4
3
3
3
3
3
3
3
4
5
6
7
8
8
8
7
7
6
6
5
5
5
4
5
6
6
7
8
9
9
9
9
8
8
8
8
8
8
7
7
7
6
6
5
5
6
5
5
4
4
3
2
2
2
3
4
4
4
4
5
5
5
6
5
6
7
8
6
7
7
6
6
7
6
7
7
6
6
6
6
5
6
5
5
5
4
4
4
3
3
2
2
2
2
2
2
2
2
3
2
2
3
2
2
3
3
3
4
3
4
4
5
5
6
6
7
8
8
8
8
8
8
7
8
8
8
7
8
7
8
7
7
7
6
6
5
6
5
5
5
4
4
4
3
2
3
4
4
5
5
5
6
5
6
5
5
5
5
5
5
4
5
5
5
5
6
5
6
6
6
7
7
6
6
5
5
5
4
4
3
4
4
4
4
5
5
5
5
4
4
3
3
2
2
1
1
1
0
1
1
2
2
2
2
2
3
3
4
4
4
5
5
5
5
4
5
5
5
5
6
6
8
7
7
7
7
5
5
5
5
4
4
4
4
4
4
4
4
3
4
3
3
3
3
4
4
4
4
5
4
4
5
5
5
5
5
6
6
6
7
7
7
7
7
6
6
6
6
5
7
7
8
8
8
8
7
7
6
6
6
5
5
5
5
4
4
4
4
2
3
3
2
2
3
3
3
2
3
2
2
2
2
1
1
1
2
3
3
2
3
3
3
3
3
3
4
4
4
4
5
4
5
4
5
4
4
4
4
4
4
5
4
5
5
5
5
5
4
4
4
3
3
3
3
4
3
3
3
2
3
2
2
2
3
3
3
3
4
3
4
4
3
4
4
4
5
5
5
5
5
5
5
6
5
5
5
5
5
6
6
7
8
8
8
8
9
8
8
7
7
7
6
5
5
5
5
4
4
4
3
3
3
3
2
3
3
3
3
2
2
2
2
3
3
4
4
4
5
5
5
5
5
5
5
4
5
4
4
3
4
4
4
4
3
3
3
3
3
4
4
4
4
4
5
5
5
5
4
3
3
3
2
2
2
2
2
1
2
3
3
3
3
3
3
4
4
4
4
4
4
3
3
3
3
3
4
4
3
4
4
5
5
5
5
5
5
4
4
5
5
4
4
4
4
5
4
4
4
4
4
4
4
4
4
4
4
4
3
3
3
3
4
4
5
4
5
6
7
7
7
7
7
7
6
6
6
5
4
5
5
5
5
5
5
5
5
5
5
5
6
4
5
4
4
3
3
3
2
2
3
2
3
3
4
4
4
4
4
4
3
4
4
3
4
3
4
3
3
3
3
4
4
4
4
5
5
5
4
4
4
4
4
3
3
3
4
3
4
5
4
5
4
4
4
4
4
4
4
4
4
4
4
3
4
4
4
4
4
5
5
4
4
4
4
4
4
4
4
4
4
4
5
4
4
5
4
4
5
4
4
4
5
5
5
4
4
4
5
4
4
4
5
5
5
5
5
5
5
5
5
5
5
4
4
4
5
4
4
4
4
4
4
4
4
4
4
4
4
5
4
3
4
3
4
3
4
3
4
4
4
4
3
4
4
4
4
4
4
4
4
4
4
4
4
4
4
5
4
3
4
5
5
5
5
4
5
4
5
4
5
4
4
5
5
4
4
4
4
4
4
3
3
4
4
3
3
4
4
4
3
4
4
3
3
3
4
4
4
4
4
4
5
4
4
5
5
4
4
4
4
5
4
5
5
5
5
5
5
5
4
5
4
4
4
4
4
4
4
4
4
4
4
4
3
3
3
3
4
3
4
4
4
4
4
4
5
4
4
4
4
4
4
4
4
4
5
4
4
5
5
4
5
4
4
4
4
4
4
4
4
4
4
4
4
4
4
4
4
4
4
4
4
4
4
4
4
4
4
4
4
4
4
4
4
4
4
5
5
5
4
4
4
4
5
4
4
4
4
4
4
4
4
4
4
4
4
4
4
4
4
4
4
4
5
4
4
5
5
5
5
5
5
5
5
5
5
5
5
5
5
5
5
5
5
5
5
6
5
6
6
6
5
5
5
4
4
4
4
5
4
4
4
4
5
4
5
4
4
4
4
5
5
5
5
5
4
4
5
4
4
4
4
4
4
4
5
4
4
4
3
4
4
4
5
4
5
4
4
4
4
4
4
4
4
4
5
4
4
4
5
5
4
4
5
5
4
4
5
4
5
5
5
4
5
5
4
5
4
5
5
4
4
5
4
5
4
4
4
4
4
5
5
5
5
5
5
5
4
5
5
5
5
5
4
5
4
5
5
6
5
5
5
5
5
5
5
6
5
5
5
5
4
5
4
4
5
4
5
4
4
4
5
4
5
4
4
5
5
5
5
4
4
5
5
5
5
5
5
5
5
5
5
5
4
5
4
4
4
4
4
4
4
4
4
4
4
5
4
4
4
5
4
4
4
4
4
4
4
4
5
5
4
4
5
5
5
5
5
5
4
5
5
5
5
5
5
5
5
5
5
5
5
5
5
5
5
5
5
5
5
5
5
5
5
5
4
5
5
4
5
5
5
5
5
5
5
5
5
6
5
5
5
5
5
5
6
5
5
5
5
5
5
5
5
5
5
5
5
5
4
5
5
4
5
4
5
5
4
5
5
5
5
5
5
5
5
5
4
5
4
5
5
5
5
5
5
4
5
5
5
5
5
5
5
5
5
5
5
4
5
5
5
5
5
5
5
5
4
5
5
5
5
5
5
5
5
5
4
5
5
5
5
5
5
5
5
5
5
5
5
5
5
5
5
4
5
5
5
5
4
5
5
4
5
5
5
5
5
5
5
5
5
5
5
4
4
4
4
5
5
4
5
5
5
5
5
5
4
4
4
5
4
5
5
5
4
5
5
5
5
5
5
5
5
5
4
4
5
4
5
4
5
4
4
5
5
5
5
5
5
5
5
6
5
5
5
5
5
4
4
5
5
4
5
6
5
5
6
5
5
5
5
5
5
5
5
6
5
5
5
5
6
6
6
6
6
6
6
5
5
5
5
5
5
5
5
5
5
5
5
5
5
5
5
5
5
5
5
5
5
5
5
4
5
4
4
4
5
4
4
5
5
5
4
5
5
5
5
5
5
4
4
4
5
5
4
5
5
5
5
5
5
5
5
5
5
5
5
6
5
5
5
5
5
6
5
5
5
5
5
5
5
5
5
5
5
5
5
5
5
5
5
5
5
5
5
5
6
5
6
5
5
6
5
5
6
5
5
5
6
5
5
5
5
5
5
5
5
5
5
5
5
5
4
5
5
5
5
5
5
5
5
5
6
5
5
5
5
5
5
5
5
5
4
5
5
5
5
5
5
5
5
5
5
5
5
5
5
5
5
5
5
5
5
5
5
5
5
6
5
5
5
5
5
5
5
5
5
5
5
5
5
5
5
5
5
5
5
5
5
5
5
5
5
5
5
5
5
5
5
5
5
5
5
5
5
5
5
5
5
5
5
5
5
5
6
5
5
5
5
5
5
5
5
5
5
5
5
5
6
5
5
5
5
5
5
5
5
4
5
5
5
5
6
5
5
5
5
5
5
6
5
6
5
6
5
5
6
6
5
6
5
6
6
6
6
5
6
6
5
6
6
6
6
6
6
6
5
5
6
5
5
5
5
5
5
5
5
5
5
5
5
5
5
5
5
5
5
5
5
5
5
5
6
5
6
5
5
5
5
5
5
5
5
5
5
5
5
5
5
5
5
5
5
6
5
5
6
5
5
5
5
5
5
6
5
5
5
5
5
5
5
6
5
5
6
6
5
5
6
5
5
5
5
6
5
6
5
6
6
5
5
6
6
5
5
6
5
6
5
5
6
5
5
5
5
5
6
5
5
5
5
5
6
5
5
5
5
5
5
5
5
5
5
6
5
5
6
5
5
5
6
5
5
5
5
6
5
6
5
5
6
6
6
5
5
6
6
5
5
5
6
6
5
5
6
6
6
6
5
5
5
5
5
5
5
5
5
5
5
5
5
5
5
5
5
5
5
5
5
5
5
5
5
5
5
5
5
6
5
5
5
5
5
5
5
5
5
5
5
5
5
5
5
4
5
5
5
5
5
5
5
5
4
5
5
5
5
5
5
5
5
5
5
5
5
5
5
5
5
5
5
5
5
5
5
5
5
5
6
6
5
6
5
5
5
5
6
5
6
6
5
5
6
6
5
5
5
5
6
5
5
5
5
5
5
6
5
5
5
5
5
5
5
5
5
5
5
5
5
6
5
5
5
5
5
5
5
5
5
5
5
5
5
5
5
5
5
5
5
5
5
4
5
5
5
5
5
4
4
5
5
5
5
4
5
4
4
4
5
5
5
4
5
5
5
4
5
5
5
5
5
5
5
4
5
5
5
5
5
5
5
5
5
5
5
5
6
5
6
5
5
6
5
5
5
5
5
5
5
5
5
5
4
5
5
5
5
5
5
5
5
5
5
4
5
5
4
5
5
4
4
5
5
5
5
5
4
5
5
5
5
5
5
5
5
5
5
4
5
5
5
5
5
4
4
4
5
5
5
5
5
5
5
4
4
5
5
4
5
4
5
5
4
5
5
4
4
5
5
5
5
5
5
5
4
5
5
5
5
5
4
5
5
5
5
5
5
4
5
4
5
4
5
4
4
4
4
4
4
4
4
4
4
4
4
4
4
4
5
4
5
4
5
5
4
4
4
4
4
4
4
4
4
5
4
4
4
5
4
4
4
4
4
4
4
4
5
5
4
4
4
5
4
4
4
4
4
4
4
4
4
4
4
5
4
4
5
4
5
4
4
5
4
4
4
4
5
4
4
5
5
5
5
5
4
4
4
4
5
5
5
5
5
4
4
4
5
5
5
5
5
5
5
4
5
4
5
5
5
5
4
4
5
5
4
5
5
4
4
4
5
4
5
5
5
5
5
5
5
5
5
4
4
4
5
4
5
4
5
5
5
5
5
5
5
5
5
4
5
4
4
4
4
4
4
5
4
4
5
4
4
4
4
4
4
4
4
4
4
4
4
4
4
4
4
4
4
4
4
4
4
4
4
4
4
3
4
4
4
4
4
4
5
4
4
4
4
5
3
5
4
4
4
4
4
4
4
4
4
4
4
4
4
4
4
4
4
4
4
4
4
4
4
4
4
4
5
5
4
5
5
5
4
5
5
4
4
5
4
4
4
4
4
5
4
4
4
4
5
5
4
4
5
5
5
4
4
5
4
5
4
4
5
4
4
4
4
4
5
4
4
4
4
4
4
3
4
4
4
4
4
4
4
4
4
4
4
4
4
4
4
4
4
4
4
4
4
4
4
5
4
4
4
5
4
4
4
4

